<?xml version='1.0' standalone='no'?>
<!DOCTYPE svg PUBLIC '-//W3C//DTD SVG 20010904//EN'
 'http://www.w3.org/TR/2001/REC-SVG-20010904/DTD/svg10.dtd'>
<svg version='1.0' xmlns='http://www.w3.org/2000/svg'
 width='261.000000pt' height='261.000000pt' viewBox='0 0 261.000000 261.000000'
 preserveAspectRatio='xMidYMid meet'>

<g transform='translate(0.000000,261.000000) scale(0.100000,-0.100000)'
fill='#000000' stroke='none'>
<path d='M175 2053 c-70 -36 -115 -112 -115 -192 0 -80 60 -170 128 -192 99
-33 231 15 232 84 0 24 -27 21 -35 -4 -18 -57 -142 -79 -205 -36 -61 41 -75
70 -75 152 0 59 4 79 21 102 35 47 82 73 131 73 50 0 75 -11 116 -48 18 -18
30 -23 37 -16 14 14 -21 59 -60 79 -38 20 -137 19 -175 -2z'/>
<path d='M585 2056 c-40 -17 -90 -75 -105 -121 -7 -21 -10 -61 -8 -90 10 -115
85 -187 196 -187 65 0 103 15 144 59 99 104 63 294 -65 342 -39 15 -125 13
-162 -3z m166 -38 c106 -59 106 -253 -1 -309 -43 -23 -111 -24 -156 -3 -108
52 -112 250 -7 312 50 28 114 29 164 0z'/>
<path d='M900 2058 c0 -7 34 -100 76 -206 66 -168 79 -193 96 -190 16 2 36 43
98 201 45 114 74 200 68 203 -18 11 -35 -20 -98 -186 -35 -91 -65 -167 -66
-169 -4 -5 -11 11 -89 212 -36 92 -62 147 -71 147 -8 0 -14 -6 -14 -12z'/>
<path d='M1315 2059 c-10 -26 -1 -394 10 -392 14 4 19 383 6 396 -7 7 -12 5
-16 -4z'/>
<path d='M1445 2059 c-3 -8 -4 -100 -3 -204 l3 -190 95 0 c82 0 101 4 140 25
54 30 87 77 96 135 14 96 -20 172 -95 214 -54 30 -227 44 -236 20z m212 -45
c57 -28 78 -68 78 -151 0 -57 -4 -77 -21 -100 -34 -45 -76 -64 -159 -70 l-75
-6 0 178 0 178 71 -7 c40 -3 87 -14 106 -22z'/>
<path d='M2120 2062 c0 -25 -33 -44 -67 -37 -34 6 -39 1 -24 -23 9 -16 47 -19
73 -8 16 7 18 -5 20 -158 2 -102 7 -166 13 -166 16 0 13 392 -2 398 -7 2 -13
-1 -13 -6z'/>
<path d='M2324 2060 c-11 -4 -33 -22 -47 -40 -22 -25 -27 -42 -27 -84 0 -61
18 -92 66 -112 49 -20 94 -17 148 10 l48 24 -7 -46 c-14 -91 -44 -121 -122
-122 -44 0 -56 4 -82 30 -31 31 -48 26 -36 -10 16 -50 151 -72 203 -33 55 41
66 67 70 167 5 112 -16 173 -70 206 -34 21 -105 26 -144 10z m134 -45 c18 -15
34 -41 40 -67 10 -38 9 -45 -10 -66 -70 -73 -208 -40 -208 50 0 94 107 143
178 83z'/>
<path d='M1835 1820 c-3 -5 0 -13 8 -16 23 -9 152 0 152 11 0 14 -151 19 -160
5z'/>
<path d='M878 1513 c-17 -4 -18 -31 -18 -384 0 -243 4 -387 10 -400 13 -23 81
-27 99 -5 9 10 11 115 9 385 -3 313 -5 373 -18 385 -17 17 -57 26 -82 19z'/>
<path d='M371 1468 c-13 -7 -28 -20 -33 -28 -13 -23 -268 -688 -268 -699 0
-30 89 -42 111 -15 8 9 30 58 49 108 l36 91 153 0 153 0 34 -90 c19 -49 42
-98 51 -107 27 -30 113 -18 113 16 0 24 -267 697 -282 713 -21 20 -88 27 -117
11z m107 -280 c29 -76 52 -142 52 -148 0 -6 -43 -10 -116 -10 -89 0 -115 3
-111 13 2 6 29 76 58 154 30 78 57 139 60 135 3 -4 29 -69 57 -144z'/>
<path d='M2247 1402 c-11 -12 -17 -36 -17 -70 0 -49 -1 -52 -26 -52 -41 0 -64
-18 -64 -48 0 -37 17 -52 56 -52 l32 0 4 -187 c3 -212 12 -242 78 -275 52 -26
138 -24 181 5 36 24 49 67 30 97 -9 13 -14 13 -40 -3 -38 -23 -93 -22 -114 1
-14 16 -17 45 -17 190 l0 172 69 0 c91 0 101 5 101 46 0 43 -21 54 -104 54
l-66 0 0 50 c0 37 -5 55 -20 70 -25 25 -62 26 -83 2z'/>
<path d='M1271 1269 c-235 -93 -238 -461 -5 -548 110 -42 265 -20 331 46 37
38 42 72 15 96 -25 22 -49 21 -62 -2 -16 -32 -73 -60 -133 -67 -48 -6 -64 -3
-109 19 -54 26 -82 60 -98 117 l-8 30 221 2 222 3 3 43 c7 101 -53 209 -142
254 -61 31 -166 34 -235 7z m179 -87 c42 -21 80 -75 80 -113 l0 -29 -161 0
-161 0 6 31 c20 99 143 158 236 111z'/>
<path d='M1942 1273 c-18 -10 -40 -30 -50 -45 l-18 -28 -13 35 c-13 36 -38 50
-82 43 l-24 -3 0 -273 c0 -300 -2 -292 61 -292 17 0 36 6 42 13 5 6 12 84 14
172 6 194 22 245 85 272 34 14 42 14 80 1 38 -14 44 -14 55 -1 17 21 15 80 -4
100 -25 24 -106 28 -146 6z'/>
<path d='M0 470 c0 -7 440 -10 1300 -10 860 0 1300 3 1300 10 0 7 -440 10
-1300 10 -860 0 -1300 -3 -1300 -10z'/>
</g>
</svg>
